
<font>
    <info face="HouseHoliday-Sans" size="95" bold="0" italic="0" chasrset="" unicode="0" stretchH="100" smooth="1" aa="1" padding="0,0,0,0" spacing="2,2"/>
    <common lineHeight="88" base="71" scaleW="512" scaleH="512" pages="1" packed="0"/>
    <pages>
        <page id="0" file="HolidayBitmapFont.png"/>
    </pages>
    <chars count="95">
        <char id="32" x="403" y="456" width="0" height="0" xoffset="0" yoffset="72" xadvance="14" page="0" chnl="0" letter="space"/>
        <char id="33" x="41" y="88" width="26" height="64" xoffset="1" yoffset="11" xadvance="21" page="0" chnl="0" letter="!"/>
        <char id="34" x="105" y="456" width="28" height="34" xoffset="2" yoffset="15" xadvance="24" page="0" chnl="0" letter="&quot;"/>
        <char id="35" x="322" y="404" width="42" height="48" xoffset="2" yoffset="19" xadvance="37" page="0" chnl="0" letter="#"/>
        <char id="36" x="206" y="281" width="33" height="60" xoffset="1" yoffset="15" xadvance="28" page="0" chnl="0" letter="$"/>
        <char id="37" x="77" y="218" width="60" height="60" xoffset="1" yoffset="14" xadvance="55" page="0" chnl="0" letter="%"/>
        <char id="38" x="2" y="154" width="49" height="62" xoffset="1" yoffset="15" xadvance="43" page="0" chnl="0" letter="&amp;"/>
        <char id="39" x="173" y="456" width="17" height="31" xoffset="2" yoffset="16" xadvance="14" page="0" chnl="0" letter="'"/>
        <char id="40" x="166" y="2" width="25" height="67" xoffset="2" yoffset="13" xadvance="19" page="0" chnl="0" letter="("/>
        <char id="41" x="193" y="2" width="25" height="67" xoffset="0" yoffset="13" xadvance="19" page="0" chnl="0" letter=")"/>
        <char id="42" x="70" y="456" width="33" height="34" xoffset="0" yoffset="16" xadvance="26" page="0" chnl="0" letter="*"/>
        <char id="43" x="464" y="404" width="34" height="37" xoffset="2" yoffset="28" xadvance="31" page="0" chnl="0" letter="+"/>
        <char id="44" x="436" y="404" width="26" height="38" xoffset="2" yoffset="52" xadvance="22" page="0" chnl="0" letter=","/>
        <char id="45" x="372" y="456" width="29" height="18" xoffset="2" yoffset="38" xadvance="25" page="0" chnl="0" letter="-"/>
        <char id="46" x="223" y="456" width="25" height="26" xoffset="2" yoffset="50" xadvance="22" page="0" chnl="0" letter="."/>
        <char id="47" x="463" y="2" width="37" height="64" xoffset="0" yoffset="11" xadvance="31" page="0" chnl="0" letter="/"/>
        <char id="48" x="456" y="281" width="43" height="59" xoffset="2" yoffset="16" xadvance="39" page="0" chnl="0" letter="0"/>
        <char id="49" x="173" y="343" width="31" height="59" xoffset="0" yoffset="15" xadvance="26" page="0" chnl="0" letter="1"/>
        <char id="50" x="168" y="281" width="36" height="60" xoffset="1" yoffset="15" xadvance="31" page="0" chnl="0" letter="2"/>
        <char id="51" x="88" y="281" width="39" height="60" xoffset="2" yoffset="15" xadvance="35" page="0" chnl="0" letter="3"/>
        <char id="52" x="2" y="343" width="43" height="59" xoffset="2" yoffset="16" xadvance="38" page="0" chnl="0" letter="4"/>
        <char id="53" x="46" y="281" width="40" height="60" xoffset="4" yoffset="16" xadvance="37" page="0" chnl="0" letter="5"/>
        <char id="54" x="403" y="154" width="42" height="61" xoffset="2" yoffset="15" xadvance="37" page="0" chnl="0" letter="6"/>
        <char id="55" x="91" y="343" width="39" height="59" xoffset="1" yoffset="17" xadvance="33" page="0" chnl="0" letter="7"/>
        <char id="56" x="428" y="218" width="42" height="60" xoffset="3" yoffset="16" xadvance="37" page="0" chnl="0" letter="8"/>
        <char id="57" x="2" y="281" width="42" height="60" xoffset="1" yoffset="16" xadvance="37" page="0" chnl="0" letter="9"/>
        <char id="58" x="408" y="404" width="26" height="47" xoffset="2" yoffset="28" xadvance="22" page="0" chnl="0" letter=":"/>
        <char id="59" x="235" y="154" width="26" height="62" xoffset="2" yoffset="28" xadvance="22" page="0" chnl="0" letter=";"/>
        <char id="60" x="2" y="456" width="32" height="36" xoffset="2" yoffset="28" xadvance="28" page="0" chnl="0" letter="&lt;"/>
        <char id="61" x="192" y="456" width="29" height="30" xoffset="2" yoffset="31" xadvance="25" page="0" chnl="0" letter="="/>
        <char id="62" x="36" y="456" width="32" height="36" xoffset="2" yoffset="29" xadvance="28" page="0" chnl="0" letter=">"/>
        <char id="63" x="303" y="88" width="40" height="63" xoffset="1" yoffset="14" xadvance="36" page="0" chnl="0" letter="?"/>
        <char id="64" x="410" y="88" width="62" height="62" xoffset="2" yoffset="17" xadvance="59" page="0" chnl="0" letter="@"/>
        <char id="65" x="190" y="218" width="48" height="60" xoffset="0" yoffset="15" xadvance="40" page="0" chnl="0" letter="A"/>
        <char id="66" x="102" y="154" width="46" height="62" xoffset="1" yoffset="14" xadvance="40" page="0" chnl="0" letter="B"/>
        <char id="67" x="382" y="218" width="44" height="60" xoffset="2" yoffset="15" xadvance="38" page="0" chnl="0" letter="C"/>
        <char id="68" x="121" y="88" width="46" height="63" xoffset="3" yoffset="14" xadvance="42" page="0" chnl="0" letter="D"/>
        <char id="69" x="195" y="154" width="38" height="62" xoffset="1" yoffset="14" xadvance="33" page="0" chnl="0" letter="E"/>
        <char id="70" x="129" y="281" width="37" height="60" xoffset="2" yoffset="14" xadvance="33" page="0" chnl="0" letter="F"/>
        <char id="71" x="311" y="154" width="45" height="61" xoffset="1" yoffset="14" xadvance="41" page="0" chnl="0" letter="G"/>
        <char id="72" x="358" y="154" width="43" height="61" xoffset="2" yoffset="14" xadvance="39" page="0" chnl="0" letter="H"/>
        <char id="73" x="206" y="343" width="22" height="59" xoffset="3" yoffset="15" xadvance="19" page="0" chnl="0" letter="I"/>
        <char id="74" x="2" y="218" width="38" height="61" xoffset="0" yoffset="15" xadvance="33" page="0" chnl="0" letter="J"/>
        <char id="75" x="53" y="154" width="47" height="62" xoffset="2" yoffset="15" xadvance="40" page="0" chnl="0" letter="K"/>
        <char id="76" x="42" y="218" width="33" height="61" xoffset="2" yoffset="14" xadvance="29" page="0" chnl="0" letter="L"/>
        <char id="77" x="304" y="281" width="53" height="59" xoffset="1" yoffset="16" xadvance="47" page="0" chnl="0" letter="M"/>
        <char id="78" x="410" y="281" width="44" height="59" xoffset="2" yoffset="16" xadvance="40" page="0" chnl="0" letter="N"/>
        <char id="79" x="359" y="281" width="49" height="59" xoffset="2" yoffset="16" xadvance="45" page="0" chnl="0" letter="O"/>
        <char id="80" x="288" y="218" width="45" height="60" xoffset="2" yoffset="14" xadvance="40" page="0" chnl="0" letter="P"/>
        <char id="81" x="58" y="2" width="50" height="70" xoffset="2" yoffset="16" xadvance="46" page="0" chnl="0" letter="Q"/>
        <char id="82" x="263" y="154" width="46" height="61" xoffset="2" yoffset="15" xadvance="41" page="0" chnl="0" letter="R"/>
        <char id="83" x="447" y="154" width="41" height="61" xoffset="1" yoffset="15" xadvance="35" page="0" chnl="0" letter="S"/>
        <char id="84" x="47" y="343" width="42" height="59" xoffset="1" yoffset="16" xadvance="36" page="0" chnl="0" letter="T"/>
        <char id="85" x="335" y="218" width="45" height="60" xoffset="2" yoffset="16" xadvance="40" page="0" chnl="0" letter="U"/>
        <char id="86" x="240" y="218" width="46" height="60" xoffset="0" yoffset="16" xadvance="38" page="0" chnl="0" letter="V"/>
        <char id="87" x="241" y="281" width="61" height="59" xoffset="0" yoffset="16" xadvance="53" page="0" chnl="0" letter="W"/>
        <char id="88" x="69" y="88" width="50" height="63" xoffset="-0" yoffset="14" xadvance="42" page="0" chnl="0" letter="X"/>
        <char id="89" x="139" y="218" width="49" height="60" xoffset="0" yoffset="15" xadvance="42" page="0" chnl="0" letter="Y"/>
        <char id="90" x="132" y="343" width="39" height="59" xoffset="1" yoffset="15" xadvance="33" page="0" chnl="0" letter="Z"/>
        <char id="91" x="366" y="2" width="24" height="65" xoffset="2" yoffset="14" xadvance="19" page="0" chnl="0" letter="["/>
        <char id="92" x="2" y="88" width="37" height="64" xoffset="0" yoffset="11" xadvance="31" page="0" chnl="0" letter="\"/>
        <char id="93" x="392" y="2" width="24" height="65" xoffset="0" yoffset="14" xadvance="18" page="0" chnl="0" letter="]"/>
        <char id="94" x="135" y="456" width="36" height="32" xoffset="0" yoffset="14" xadvance="28" page="0" chnl="0" letter="^"/>
        <char id="95" x="317" y="456" width="53" height="18" xoffset="-0" yoffset="70" xadvance="44" page="0" chnl="0" letter="_"/>
        <char id="96" x="250" y="456" width="25" height="25" xoffset="0" yoffset="-4" xadvance="19" page="0" chnl="0" letter="`"/>
        <char id="97" x="309" y="343" width="40" height="51" xoffset="1" yoffset="25" xadvance="35" page="0" chnl="0" letter="a"/>
        <char id="98" x="278" y="2" width="42" height="65" xoffset="2" yoffset="11" xadvance="37" page="0" chnl="0" letter="b"/>
        <char id="99" x="86" y="404" width="36" height="50" xoffset="1" yoffset="25" xadvance="30" page="0" chnl="0" letter="c"/>
        <char id="100" x="418" y="2" width="43" height="64" xoffset="1" yoffset="12" xadvance="38" page="0" chnl="0" letter="d"/>
        <char id="101" x="209" y="404" width="39" height="49" xoffset="1" yoffset="26" xadvance="33" page="0" chnl="0" letter="e"/>
        <char id="102" x="220" y="2" width="31" height="66" xoffset="1" yoffset="10" xadvance="24" page="0" chnl="0" letter="f"/>
        <char id="103" x="215" y="88" width="43" height="63" xoffset="1" yoffset="25" xadvance="39" page="0" chnl="0" letter="g"/>
        <char id="104" x="260" y="88" width="41" height="63" xoffset="2" yoffset="12" xadvance="37" page="0" chnl="0" letter="h"/>
        <char id="105" x="253" y="2" width="23" height="66" xoffset="1" yoffset="8" xadvance="18" page="0" chnl="0" letter="i"/>
        <char id="106" x="2" y="2" width="33" height="84" xoffset="-9" yoffset="7" xadvance="17" page="0" chnl="0" letter="j"/>
        <char id="107" x="322" y="2" width="42" height="65" xoffset="2" yoffset="12" xadvance="35" page="0" chnl="0" letter="k"/>
        <char id="108" x="387" y="88" width="21" height="63" xoffset="2" yoffset="13" xadvance="18" page="0" chnl="0" letter="l"/>
        <char id="109" x="351" y="343" width="58" height="50" xoffset="1" yoffset="26" xadvance="54" page="0" chnl="0" letter="m"/>
        <char id="110" x="124" y="404" width="41" height="49" xoffset="2" yoffset="26" xadvance="37" page="0" chnl="0" letter="n"/>
        <char id="111" x="167" y="404" width="40" height="49" xoffset="1" yoffset="26" xadvance="35" page="0" chnl="0" letter="o"/>
        <char id="112" x="150" y="154" width="43" height="62" xoffset="2" yoffset="26" xadvance="38" page="0" chnl="0" letter="p"/>
        <char id="113" x="169" y="88" width="44" height="63" xoffset="1" yoffset="25" xadvance="39" page="0" chnl="0" letter="q"/>
        <char id="114" x="288" y="404" width="32" height="49" xoffset="1" yoffset="26" xadvance="26" page="0" chnl="0" letter="r"/>
        <char id="115" x="47" y="404" width="37" height="50" xoffset="1" yoffset="25" xadvance="31" page="0" chnl="0" letter="s"/>
        <char id="116" x="230" y="343" width="30" height="55" xoffset="0" yoffset="20" xadvance="24" page="0" chnl="0" letter="t"/>
        <char id="117" x="366" y="404" width="40" height="48" xoffset="1" yoffset="27" xadvance="35" page="0" chnl="0" letter="u"/>
        <char id="118" x="2" y="404" width="43" height="50" xoffset="0" yoffset="25" xadvance="36" page="0" chnl="0" letter="v"/>
        <char id="119" x="411" y="343" width="55" height="50" xoffset="1" yoffset="26" xadvance="50" page="0" chnl="0" letter="w"/>
        <char id="120" x="262" y="343" width="45" height="51" xoffset="0" yoffset="25" xadvance="38" page="0" chnl="0" letter="x"/>
        <char id="121" x="345" y="88" width="40" height="63" xoffset="2" yoffset="25" xadvance="35" page="0" chnl="0" letter="y"/>
        <char id="122" x="250" y="404" width="36" height="49" xoffset="1" yoffset="26" xadvance="30" page="0" chnl="0" letter="z"/>
        <char id="123" x="110" y="2" width="26" height="68" xoffset="1" yoffset="13" xadvance="19" page="0" chnl="0" letter="{"/>
        <char id="124" x="37" y="2" width="19" height="73" xoffset="2" yoffset="9" xadvance="16" page="0" chnl="0" letter="|"/>
        <char id="125" x="138" y="2" width="26" height="68" xoffset="0" yoffset="13" xadvance="19" page="0" chnl="0" letter="}"/>
        <char id="126" x="277" y="456" width="38" height="21" xoffset="0" yoffset="34" xadvance="31" page="0" chnl="0" letter="~"/>
    </chars>
</font>